2023-11-30 13:22:33 [summarize-panel-build]: Ciliopati_v6.1.0.json:  NEW FILE
2023-11-30 13:22:33 [summarize-panel-build]: Ciliopati_v6.1.0_genes_transcripts.tsv:  NEW FILE
2023-11-30 13:22:33 [summarize-panel-build]: Ciliopati_v6.1.0_genetikkportalen.tsv:  NEW FILE
2023-11-30 13:22:33 [summarize-panel-build]: Ciliopati_v6.1.0_phenotypes.tsv:  NEW FILE
2023-11-30 13:22:33 [summarize-panel-build]: Ciliopati_v6.1.0_regions.bed:  NEW FILE
